<?xml version="1.0" encoding="UTF-8" standalone="yes"?><svg xmlns="http://www.w3.org/2000/svg" width="900" height="500" viewBox="0 0 900 500" preserveAspectRatio="none"><!--
Source URL: holder.js/900x500/auto/#666:#444/text:Second slide
Created with Holder.js 2.6.0.
Learn more at http://holderjs.com
(c) 2012-2015 Ivan Malopinsky - http://imsky.co
--><defs><style type="text/css"><![CDATA[#holder_1545c038a57 text { fill:#444;font-weight:bold;font-family:Arial, Helvetica, Open Sans, sans-serif, monospace;font-size:45pt } ]]></style></defs><g id="holder_1545c038a57"><rect width="900" height="500" fill="#666"/><g><text x="264.5" y="270.1">Second slide</text></g></g></svg>